^D:\PROGRAMS\REPOS\INFOMCV_P2\X64\DEBUG\ARCBALL.OBJ|D:\PROGRAMS\REPOS\INFOMCV_P2\X64\DEBUG\CALIBRATION.OBJ|D:\PROGRAMS\REPOS\INFOMCV_P2\X64\DEBUG\CAMERA.OBJ|D:\PROGRAMS\REPOS\INFOMCV_P2\X64\DEBUG\GENERAL.OBJ|D:\PROGRAMS\REPOS\INFOMCV_P2\X64\DEBUG\GLUT.OBJ|D:\PROGRAMS\REPOS\INFOMCV_P2\X64\DEBUG\MAIN.OBJ|D:\PROGRAMS\REPOS\INFOMCV_P2\X64\DEBUG\OLD.OBJ|D:\PROGRAMS\REPOS\INFOMCV_P2\X64\DEBUG\RECONSTRUCTOR.OBJ|D:\PROGRAMS\REPOS\INFOMCV_P2\X64\DEBUG\SCENE3DRENDERER.OBJ|D:\PROGRAMS\REPOS\INFOMCV_P2\X64\DEBUG\VOXELRECONSTRUCTION.OBJ
D:\PROGRAMS\REPOS\INFOMCV_P2\X64\DEBUG\VOXELRECONSTRUCTION.ILK
D:\PROGRAMS\REPOS\INFOMCV_P2\X64\DEBUG\VOXELRECONSTRUCTION.EXE
D:\PROGRAMS\REPOS\INFOMCV_P2\X64\DEBUG\VOXELRECONSTRUCTION.PDB
